…
penalty_grid <- grid_regular(
    penalty(range = c(-1, 3)), 
    levels = 40)

tune_output <- tune_grid( 
    lasso_wf_tune,
    resamples = songs_cv,
    metrics = metric_set(mae),
    grid = penalty_grid)

tune_output %>% collect_metrics(summarize = TRUE)
```

    ## # A tibble: 40 × 7
    ##    penalty .metric .estimator  mean     n std_err .config              
    ##      <dbl> <chr>   <chr>      <dbl> <int>   <dbl> <chr>                
    ##  1   0.1   mae     standard    15.8    10  0.0649 Preprocessor1_Model01
    ##  2   0.127 mae     standard    15.8    10  0.0649 Preprocessor1_Model02
    ##  3   0.160 mae     standard    15.8    10  0.0649 Preprocessor1_Model03
    ##  4   0.203 mae     standard    15.8    10  0.0650 Preprocessor1_Model04
    ##  5   0.257 mae     standard    15.8    10  0.0651 Preprocessor1_Model05
    ##  6   0.326 mae     standard    15.9    10  0.0652 Preprocessor1_Model06
    ##  7   0.412 mae     standard    15.9    10  0.0653 Preprocessor1_Model07
    ##  8   0.522 mae     standard    15.9    10  0.0655 Preprocessor1_Model08
    ##  9   0.661 mae     standard    16.0    10  0.0661 Preprocessor1_Model09
    ## 10   0.838 mae     standard    16.0    10  0.0666 Preprocessor1_Model10
    ## # ℹ 30 more rows
…
